tooling/transcript
# vsim -do ./config/run.tcl -lib work -c -wlf ./waveform.wlf work.tb_DE0_TOP 
# Loading work.tb_DE0_TOP
# Loading work.top
# Loading work.clk_div
# Loading work.memory
# Loading work.cpu
# Loading work.register
# Loading work.alu
# Loading work.bcd
# Loading work.ssd
# do ./config/run.tcl 
# Loading memory from mem_init.hex
# mem[0] = 0000
# Starting simulation with memory file: mem_init.mif
# Time 230 | PC=0 ADDR=00 DATA=0000 MEM=xxxx WE=0 CPU_OUT=0 LED= 0 op1=0 op2=0 op3=0 ir_low=0000
# Time 310 | PC=8 ADDR=00 DATA=0000 MEM=0000 WE=0 CPU_OUT=0 LED= 0 op1=0 op2=0 op3=0 ir_low=0000
# Time 390 | PC=8 ADDR=00 DATA=0000 MEM=0000 WE=0 CPU_OUT=0 LED= 0 op1=0 op2=0 op3=0 ir_low=0000
# Time 470 | PC=8 ADDR=08 DATA=0000 MEM=0000 WE=0 CPU_OUT=0 LED= 0 op1=0 op2=0 op3=0 ir_low=0000
# Time 550 | PC=9 ADDR=08 DATA=0000 MEM=7101 WE=0 CPU_OUT=0 LED= 0 op1=0 op2=0 op3=0 ir_low=0000
# Time 630 | PC=9 ADDR=08 DATA=7101 MEM=7101 WE=0 CPU_OUT=0 LED= 0 op1=0 op2=0 op3=0 ir_low=0000
# Time 710 | PC=9 ADDR=08 DATA=7101 MEM=7101 WE=0 CPU_OUT=0 LED= 0 op1=1 op2=0 op3=1 ir_low=0000
# Time 790 | PC=9 ADDR=08 DATA=7101 MEM=7101 WE=0 CPU_OUT=0 LED= 0 op1=1 op2=0 op3=1 ir_low=0000
# Time 870 | PC=9 ADDR=08 DATA=7101 MEM=7101 WE=0 CPU_OUT=0 LED= 0 op1=1 op2=0 op3=1 ir_low=0000
# Time 950 | PC=9 ADDR=08 DATA=7101 MEM=7101 WE=0 CPU_OUT=0 LED= 0 op1=1 op2=0 op3=1 ir_low=0000
# Time 1030 | PC=9 ADDR=01 DATA=7101 MEM=7101 WE=0 CPU_OUT=0 LED= 0 op1=1 op2=0 op3=1 ir_low=0000
# Time 1110 | PC=9 ADDR=01 DATA=0008 MEM=0000 WE=0 CPU_OUT=0 LED= 0 op1=1 op2=0 op3=1 ir_low=0000
# Time 1190 | PC=9 ADDR=01 DATA=0008 MEM=0000 WE=1 CPU_OUT=0 LED= 0 op1=1 op2=0 op3=1 ir_low=0000
# Time 1270 | PC=9 ADDR=01 DATA=0008 MEM=0000 WE=0 CPU_OUT=0 LED= 0 op1=1 op2=0 op3=1 ir_low=0000
# Time 1350 | PC=9 ADDR=09 DATA=0008 MEM=0008 WE=0 CPU_OUT=0 LED= 0 op1=1 op2=0 op3=1 ir_low=0000
# Time 1430 | PC=10 ADDR=09 DATA=0008 MEM=8101 WE=0 CPU_OUT=0 LED= 0 op1=1 op2=0 op3=1 ir_low=0000
# Time 1510 | PC=10 ADDR=09 DATA=8101 MEM=8101 WE=0 CPU_OUT=0 LED= 0 op1=1 op2=0 op3=1 ir_low=0000
# Time 1590 | PC=10 ADDR=09 DATA=8101 MEM=8101 WE=0 CPU_OUT=0 LED= 0 op1=1 op2=0 op3=1 ir_low=0000
# Time 1670 | PC=10 ADDR=09 DATA=8101 MEM=8101 WE=0 CPU_OUT=0 LED= 0 op1=1 op2=0 op3=1 ir_low=0000
# Time 1750 | PC=10 ADDR=01 DATA=8101 MEM=8101 WE=0 CPU_OUT=0 LED= 0 op1=1 op2=0 op3=1 ir_low=0000
# Time 1830 | PC=10 ADDR=01 DATA=8101 MEM=0008 WE=0 CPU_OUT=0 LED= 0 op1=1 op2=0 op3=1 ir_low=0000
# Time 1910 | PC=10 ADDR=01 DATA=0008 MEM=0008 WE=0 CPU_OUT=0 LED= 0 op1=1 op2=0 op3=1 ir_low=0000
# Time 1990 | PC=10 ADDR=01 DATA=0008 MEM=0008 WE=0 CPU_OUT=0 LED= 0 op1=1 op2=0 op3=1 ir_low=0000
# Time 2070 | PC=10 ADDR=01 DATA=0008 MEM=0008 WE=0 CPU_OUT=0 LED= 0 op1=1 op2=0 op3=1 ir_low=0000
# Time 2150 | PC=10 ADDR=01 DATA=0008 MEM=0008 WE=0 CPU_OUT=8 LED= 8 op1=1 op2=0 op3=1 ir_low=0000
# Time 2230 | PC=10 ADDR=01 DATA=0008 MEM=0008 WE=0 CPU_OUT=8 LED= 8 op1=1 op2=0 op3=1 ir_low=0000
# Time 2310 | PC=10 ADDR=0a DATA=0008 MEM=0008 WE=0 CPU_OUT=8 LED= 8 op1=1 op2=0 op3=1 ir_low=0000
# Time 2390 | PC=11 ADDR=0a DATA=0008 MEM=0210 WE=0 CPU_OUT=8 LED= 8 op1=1 op2=0 op3=1 ir_low=0000
# Time 2470 | PC=11 ADDR=0a DATA=0210 MEM=0210 WE=0 CPU_OUT=8 LED= 8 op1=1 op2=0 op3=1 ir_low=0000
# Time 2550 | PC=11 ADDR=0a DATA=0210 MEM=0210 WE=0 CPU_OUT=8 LED= 8 op1=2 op2=1 op3=0 ir_low=0000
# Time 2630 | PC=11 ADDR=0a DATA=0210 MEM=0210 WE=0 CPU_OUT=8 LED= 8 op1=2 op2=1 op3=0 ir_low=0000
# Time 2710 | PC=11 ADDR=01 DATA=0210 MEM=0210 WE=0 CPU_OUT=8 LED= 8 op1=2 op2=1 op3=0 ir_low=0000
# Time 2790 | PC=11 ADDR=01 DATA=0210 MEM=0008 WE=0 CPU_OUT=8 LED= 8 op1=2 op2=1 op3=0 ir_low=0000
# Time 2870 | PC=11 ADDR=01 DATA=0008 MEM=0008 WE=0 CPU_OUT=8 LED= 8 op1=2 op2=1 op3=0 ir_low=0000
# Time 2950 | PC=11 ADDR=02 DATA=0008 MEM=0008 WE=0 CPU_OUT=8 LED= 8 op1=2 op2=1 op3=0 ir_low=0000
# Time 3030 | PC=11 ADDR=02 DATA=0008 MEM=0000 WE=1 CPU_OUT=8 LED= 8 op1=2 op2=1 op3=0 ir_low=0000
# Time 3110 | PC=11 ADDR=02 DATA=0008 MEM=0000 WE=0 CPU_OUT=8 LED= 8 op1=2 op2=1 op3=0 ir_low=0000
# Time 3190 | PC=11 ADDR=0b DATA=0008 MEM=0008 WE=0 CPU_OUT=8 LED= 8 op1=2 op2=1 op3=0 ir_low=0000
# Time 3270 | PC=12 ADDR=0b DATA=0008 MEM=1312 WE=0 CPU_OUT=8 LED= 8 op1=2 op2=1 op3=0 ir_low=0000
# Time 3350 | PC=12 ADDR=0b DATA=1312 MEM=1312 WE=0 CPU_OUT=8 LED= 8 op1=2 op2=1 op3=0 ir_low=0000
# Time 3430 | PC=12 ADDR=0b DATA=1312 MEM=1312 WE=0 CPU_OUT=8 LED= 8 op1=3 op2=1 op3=2 ir_low=0000
# Time 3510 | PC=12 ADDR=0b DATA=1312 MEM=1312 WE=0 CPU_OUT=8 LED= 8 op1=3 op2=1 op3=2 ir_low=0000
# Time 3590 | PC=12 ADDR=01 DATA=1312 MEM=1312 WE=0 CPU_OUT=8 LED= 8 op1=3 op2=1 op3=2 ir_low=0000
# Time 3670 | PC=12 ADDR=01 DATA=1312 MEM=0008 WE=0 CPU_OUT=8 LED= 8 op1=3 op2=1 op3=2 ir_low=0000
# Time 3750 | PC=12 ADDR=01 DATA=0008 MEM=0008 WE=0 CPU_OUT=8 LED= 8 op1=3 op2=1 op3=2 ir_low=0000
# Time 3830 | PC=12 ADDR=02 DATA=0008 MEM=0008 WE=0 CPU_OUT=8 LED= 8 op1=3 op2=1 op3=2 ir_low=0000
# Time 3910 | PC=12 ADDR=02 DATA=0008 MEM=0008 WE=0 CPU_OUT=8 LED= 8 op1=3 op2=1 op3=2 ir_low=0000
# Time 3990 | PC=12 ADDR=02 DATA=0008 MEM=0008 WE=0 CPU_OUT=8 LED= 8 op1=3 op2=1 op3=2 ir_low=0000
# Time 4070 | PC=12 ADDR=02 DATA=0008 MEM=0008 WE=0 CPU_OUT=8 LED= 8 op1=3 op2=1 op3=2 ir_low=0000
# Time 4150 | PC=12 ADDR=02 DATA=0008 MEM=0008 WE=0 CPU_OUT=8 LED= 8 op1=3 op2=1 op3=2 ir_low=0000
# Time 4230 | PC=12 ADDR=02 DATA=0010 MEM=0008 WE=0 CPU_OUT=8 LED= 8 op1=3 op2=1 op3=2 ir_low=0000
# Time 4310 | PC=12 ADDR=03 DATA=0010 MEM=0008 WE=0 CPU_OUT=8 LED= 8 op1=3 op2=1 op3=2 ir_low=0000
# Time 4390 | PC=12 ADDR=03 DATA=0010 MEM=0000 WE=1 CPU_OUT=8 LED= 8 op1=3 op2=1 op3=2 ir_low=0000
# Time 4470 | PC=12 ADDR=03 DATA=0010 MEM=0000 WE=0 CPU_OUT=8 LED= 8 op1=3 op2=1 op3=2 ir_low=0000
# Time 4550 | PC=12 ADDR=0c DATA=0010 MEM=0010 WE=0 CPU_OUT=8 LED= 8 op1=3 op2=1 op3=2 ir_low=0000
# Time 4630 | PC=13 ADDR=0c DATA=0010 MEM=8301 WE=0 CPU_OUT=8 LED= 8 op1=3 op2=1 op3=2 ir_low=0000
# Time 4710 | PC=13 ADDR=0c DATA=8301 MEM=8301 WE=0 CPU_OUT=8 LED= 8 op1=3 op2=1 op3=2 ir_low=0000
# Time 4790 | PC=13 ADDR=0c DATA=8301 MEM=8301 WE=0 CPU_OUT=8 LED= 8 op1=3 op2=0 op3=1 ir_low=0000
# Time 4870 | PC=13 ADDR=0c DATA=8301 MEM=8301 WE=0 CPU_OUT=8 LED= 8 op1=3 op2=0 op3=1 ir_low=0000
# Time 4950 | PC=13 ADDR=03 DATA=8301 MEM=8301 WE=0 CPU_OUT=8 LED= 8 op1=3 op2=0 op3=1 ir_low=0000
# Time 5030 | PC=13 ADDR=03 DATA=8301 MEM=0010 WE=0 CPU_OUT=8 LED= 8 op1=3 op2=0 op3=1 ir_low=0000
# Time 5110 | PC=13 ADDR=03 DATA=0010 MEM=0010 WE=0 CPU_OUT=8 LED= 8 op1=3 op2=0 op3=1 ir_low=0000
# Time 5190 | PC=13 ADDR=03 DATA=0010 MEM=0010 WE=0 CPU_OUT=8 LED= 8 op1=3 op2=0 op3=1 ir_low=0000
# Time 5270 | PC=13 ADDR=03 DATA=0010 MEM=0010 WE=0 CPU_OUT=8 LED= 8 op1=3 op2=0 op3=1 ir_low=0000
# Time 5350 | PC=13 ADDR=03 DATA=0010 MEM=0010 WE=0 CPU_OUT=10 LED=16 op1=3 op2=0 op3=1 ir_low=0000
# Time 5430 | PC=13 ADDR=03 DATA=0010 MEM=0010 WE=0 CPU_OUT=10 LED=16 op1=3 op2=0 op3=1 ir_low=0000
# Time 5510 | PC=13 ADDR=0d DATA=0010 MEM=0010 WE=0 CPU_OUT=10 LED=16 op1=3 op2=0 op3=1 ir_low=0000
# Time 5590 | PC=14 ADDR=0d DATA=0010 MEM=5218 WE=0 CPU_OUT=10 LED=16 op1=3 op2=0 op3=1 ir_low=0000
# Time 5670 | PC=14 ADDR=0d DATA=5218 MEM=5218 WE=0 CPU_OUT=10 LED=16 op1=3 op2=0 op3=1 ir_low=0000
# Time 5750 | PC=14 ADDR=0d DATA=5218 MEM=5218 WE=0 CPU_OUT=10 LED=16 op1=2 op2=1 op3=8 ir_low=0000
# Time 5830 | PC=14 ADDR=0d DATA=5218 MEM=5218 WE=0 CPU_OUT=10 LED=16 op1=2 op2=1 op3=8 ir_low=0000
# Time 5910 | PC=14 ADDR=0e DATA=5218 MEM=5218 WE=0 CPU_OUT=10 LED=16 op1=2 op2=1 op3=8 ir_low=0000
# Time 5990 | PC=15 ADDR=0e DATA=5218 MEM=0008 WE=0 CPU_OUT=10 LED=16 op1=2 op2=1 op3=8 ir_low=0000
# Time 6070 | PC=15 ADDR=0e DATA=0008 MEM=0008 WE=0 CPU_OUT=10 LED=16 op1=2 op2=1 op3=8 ir_low=0000
# Time 6150 | PC=15 ADDR=0e DATA=0008 MEM=0008 WE=0 CPU_OUT=10 LED=16 op1=2 op2=1 op3=8 ir_low=0008
# Time 6230 | PC=15 ADDR=0e DATA=0008 MEM=0008 WE=0 CPU_OUT=10 LED=16 op1=2 op2=1 op3=8 ir_low=0008
# Time 6310 | PC=15 ADDR=02 DATA=0008 MEM=0008 WE=0 CPU_OUT=10 LED=16 op1=2 op2=1 op3=8 ir_low=0008
# Time 6390 | PC=15 ADDR=02 DATA=0008 MEM=0008 WE=0 CPU_OUT=10 LED=16 op1=2 op2=1 op3=8 ir_low=0008
# Time 6470 | PC=15 ADDR=02 DATA=0008 MEM=0008 WE=0 CPU_OUT=10 LED=16 op1=2 op2=1 op3=8 ir_low=0008
# Time 6550 | PC=15 ADDR=02 DATA=0008 MEM=0008 WE=0 CPU_OUT=10 LED=16 op1=2 op2=1 op3=8 ir_low=0008
# Time 6630 | PC=15 ADDR=01 DATA=0008 MEM=0008 WE=0 CPU_OUT=10 LED=16 op1=2 op2=1 op3=8 ir_low=0008
# Time 6710 | PC=15 ADDR=01 DATA=0008 MEM=0008 WE=0 CPU_OUT=10 LED=16 op1=2 op2=1 op3=8 ir_low=0008
# Time 6790 | PC=15 ADDR=01 DATA=0008 MEM=0008 WE=0 CPU_OUT=10 LED=16 op1=2 op2=1 op3=8 ir_low=0008
# Time 6870 | PC=8 ADDR=01 DATA=0008 MEM=0008 WE=0 CPU_OUT=10 LED=16 op1=2 op2=1 op3=8 ir_low=0008
# Time 6950 | PC=8 ADDR=01 DATA=0008 MEM=0008 WE=0 CPU_OUT=10 LED=16 op1=2 op2=1 op3=8 ir_low=0008
# Time 7030 | PC=8 ADDR=08 DATA=0008 MEM=0008 WE=0 CPU_OUT=10 LED=16 op1=2 op2=1 op3=8 ir_low=0008
# Time 7110 | PC=9 ADDR=08 DATA=0008 MEM=7101 WE=0 CPU_OUT=10 LED=16 op1=2 op2=1 op3=8 ir_low=0008
# Time 7190 | PC=9 ADDR=08 DATA=7101 MEM=7101 WE=0 CPU_OUT=10 LED=16 op1=2 op2=1 op3=8 ir_low=0008
# Time 7270 | PC=9 ADDR=08 DATA=7101 MEM=7101 WE=0 CPU_OUT=10 LED=16 op1=1 op2=0 op3=1 ir_low=0008
# Time 7350 | PC=9 ADDR=08 DATA=7101 MEM=7101 WE=0 CPU_OUT=10 LED=16 op1=1 op2=0 op3=1 ir_low=0008
# Time 7430 | PC=9 ADDR=08 DATA=7101 MEM=7101 WE=0 CPU_OUT=10 LED=16 op1=1 op2=0 op3=1 ir_low=0008
# Time 7510 | PC=9 ADDR=08 DATA=7101 MEM=7101 WE=0 CPU_OUT=10 LED=16 op1=1 op2=0 op3=1 ir_low=0008
# Time 7590 | PC=9 ADDR=01 DATA=7101 MEM=7101 WE=0 CPU_OUT=10 LED=16 op1=1 op2=0 op3=1 ir_low=0008
# Time 7670 | PC=9 ADDR=01 DATA=0003 MEM=0008 WE=0 CPU_OUT=10 LED=16 op1=1 op2=0 op3=1 ir_low=0008
# Time 7750 | PC=9 ADDR=01 DATA=0003 MEM=0008 WE=1 CPU_OUT=10 LED=16 op1=1 op2=0 op3=1 ir_low=0008
# Time 7830 | PC=9 ADDR=01 DATA=0003 MEM=0008 WE=0 CPU_OUT=10 LED=16 op1=1 op2=0 op3=1 ir_low=0008
# Time 7910 | PC=9 ADDR=09 DATA=0003 MEM=0003 WE=0 CPU_OUT=10 LED=16 op1=1 op2=0 op3=1 ir_low=0008
# Time 7990 | PC=10 ADDR=09 DATA=0003 MEM=8101 WE=0 CPU_OUT=10 LED=16 op1=1 op2=0 op3=1 ir_low=0008
# Time 8070 | PC=10 ADDR=09 DATA=8101 MEM=8101 WE=0 CPU_OUT=10 LED=16 op1=1 op2=0 op3=1 ir_low=0008
# Time 8150 | PC=10 ADDR=09 DATA=8101 MEM=8101 WE=0 CPU_OUT=10 LED=16 op1=1 op2=0 op3=1 ir_low=0008
# Time 8230 | PC=10 ADDR=09 DATA=8101 MEM=8101 WE=0 CPU_OUT=10 LED=16 op1=1 op2=0 op3=1 ir_low=0008
# Time 8310 | PC=10 ADDR=01 DATA=8101 MEM=8101 WE=0 CPU_OUT=10 LED=16 op1=1 op2=0 op3=1 ir_low=0008
# Time 8390 | PC=10 ADDR=01 DATA=8101 MEM=0003 WE=0 CPU_OUT=10 LED=16 op1=1 op2=0 op3=1 ir_low=0008
# Time 8470 | PC=10 ADDR=01 DATA=0003 MEM=0003 WE=0 CPU_OUT=10 LED=16 op1=1 op2=0 op3=1 ir_low=0008
# Time 8550 | PC=10 ADDR=01 DATA=0003 MEM=0003 WE=0 CPU_OUT=10 LED=16 op1=1 op2=0 op3=1 ir_low=0008
# Time 8630 | PC=10 ADDR=01 DATA=0003 MEM=0003 WE=0 CPU_OUT=10 LED=16 op1=1 op2=0 op3=1 ir_low=0008
# Time 8710 | PC=10 ADDR=01 DATA=0003 MEM=0003 WE=0 CPU_OUT=3 LED= 3 op1=1 op2=0 op3=1 ir_low=0008
# Time 8790 | PC=10 ADDR=01 DATA=0003 MEM=0003 WE=0 CPU_OUT=3 LED= 3 op1=1 op2=0 op3=1 ir_low=0008
# Time 8870 | PC=10 ADDR=0a DATA=0003 MEM=0003 WE=0 CPU_OUT=3 LED= 3 op1=1 op2=0 op3=1 ir_low=0008
# Time 8950 | PC=11 ADDR=0a DATA=0003 MEM=0210 WE=0 CPU_OUT=3 LED= 3 op1=1 op2=0 op3=1 ir_low=0008
# Time 9030 | PC=11 ADDR=0a DATA=0210 MEM=0210 WE=0 CPU_OUT=3 LED= 3 op1=1 op2=0 op3=1 ir_low=0008
# Time 9110 | PC=11 ADDR=0a DATA=0210 MEM=0210 WE=0 CPU_OUT=3 LED= 3 op1=2 op2=1 op3=0 ir_low=0008
# Time 9190 | PC=11 ADDR=0a DATA=0210 MEM=0210 WE=0 CPU_OUT=3 LED= 3 op1=2 op2=1 op3=0 ir_low=0008
# Time 9270 | PC=11 ADDR=01 DATA=0210 MEM=0210 WE=0 CPU_OUT=3 LED= 3 op1=2 op2=1 op3=0 ir_low=0008
# Time 9350 | PC=11 ADDR=01 DATA=0210 MEM=0003 WE=0 CPU_OUT=3 LED= 3 op1=2 op2=1 op3=0 ir_low=0008
# Time 9430 | PC=11 ADDR=01 DATA=0003 MEM=0003 WE=0 CPU_OUT=3 LED= 3 op1=2 op2=1 op3=0 ir_low=0008
# Time 9510 | PC=11 ADDR=02 DATA=0003 MEM=0003 WE=0 CPU_OUT=3 LED= 3 op1=2 op2=1 op3=0 ir_low=0008
# Time 9590 | PC=11 ADDR=02 DATA=0003 MEM=0008 WE=1 CPU_OUT=3 LED= 3 op1=2 op2=1 op3=0 ir_low=0008
# Time 9670 | PC=11 ADDR=02 DATA=0003 MEM=0008 WE=0 CPU_OUT=3 LED= 3 op1=2 op2=1 op3=0 ir_low=0008
# Time 9750 | PC=11 ADDR=0b DATA=0003 MEM=0003 WE=0 CPU_OUT=3 LED= 3 op1=2 op2=1 op3=0 ir_low=0008
# Time 9830 | PC=12 ADDR=0b DATA=0003 MEM=1312 WE=0 CPU_OUT=3 LED= 3 op1=2 op2=1 op3=0 ir_low=0008
# Time 9910 | PC=12 ADDR=0b DATA=1312 MEM=1312 WE=0 CPU_OUT=3 LED= 3 op1=2 op2=1 op3=0 ir_low=0008
# Time 9990 | PC=12 ADDR=0b DATA=1312 MEM=1312 WE=0 CPU_OUT=3 LED= 3 op1=3 op2=1 op3=2 ir_low=0008
# Time 10070 | PC=12 ADDR=0b DATA=1312 MEM=1312 WE=0 CPU_OUT=3 LED= 3 op1=3 op2=1 op3=2 ir_low=0008
# Time 10150 | PC=12 ADDR=01 DATA=1312 MEM=1312 WE=0 CPU_OUT=3 LED= 3 op1=3 op2=1 op3=2 ir_low=0008
# Time 10230 | PC=12 ADDR=01 DATA=1312 MEM=0003 WE=0 CPU_OUT=3 LED= 3 op1=3 op2=1 op3=2 ir_low=0008
# Time 10310 | PC=12 ADDR=01 DATA=0003 MEM=0003 WE=0 CPU_OUT=3 LED= 3 op1=3 op2=1 op3=2 ir_low=0008
# Time 10390 | PC=12 ADDR=02 DATA=0003 MEM=0003 WE=0 CPU_OUT=3 LED= 3 op1=3 op2=1 op3=2 ir_low=0008
# Time 10470 | PC=12 ADDR=02 DATA=0003 MEM=0003 WE=0 CPU_OUT=3 LED= 3 op1=3 op2=1 op3=2 ir_low=0008
# Time 10550 | PC=12 ADDR=02 DATA=0003 MEM=0003 WE=0 CPU_OUT=3 LED= 3 op1=3 op2=1 op3=2 ir_low=0008
# Time 10630 | PC=12 ADDR=02 DATA=0003 MEM=0003 WE=0 CPU_OUT=3 LED= 3 op1=3 op2=1 op3=2 ir_low=0008
# Time 10710 | PC=12 ADDR=02 DATA=0003 MEM=0003 WE=0 CPU_OUT=3 LED= 3 op1=3 op2=1 op3=2 ir_low=0008
# Time 10790 | PC=12 ADDR=02 DATA=0006 MEM=0003 WE=0 CPU_OUT=3 LED= 3 op1=3 op2=1 op3=2 ir_low=0008
# Time 10870 | PC=12 ADDR=03 DATA=0006 MEM=0003 WE=0 CPU_OUT=3 LED= 3 op1=3 op2=1 op3=2 ir_low=0008
# Time 10950 | PC=12 ADDR=03 DATA=0006 MEM=0010 WE=1 CPU_OUT=3 LED= 3 op1=3 op2=1 op3=2 ir_low=0008
# Time 11030 | PC=12 ADDR=03 DATA=0006 MEM=0010 WE=0 CPU_OUT=3 LED= 3 op1=3 op2=1 op3=2 ir_low=0008
# Time 11110 | PC=12 ADDR=0c DATA=0006 MEM=0006 WE=0 CPU_OUT=3 LED= 3 op1=3 op2=1 op3=2 ir_low=0008
# Time 11190 | PC=13 ADDR=0c DATA=0006 MEM=8301 WE=0 CPU_OUT=3 LED= 3 op1=3 op2=1 op3=2 ir_low=0008
# Time 11270 | PC=13 ADDR=0c DATA=8301 MEM=8301 WE=0 CPU_OUT=3 LED= 3 op1=3 op2=1 op3=2 ir_low=0008
# Time 11350 | PC=13 ADDR=0c DATA=8301 MEM=8301 WE=0 CPU_OUT=3 LED= 3 op1=3 op2=0 op3=1 ir_low=0008
# Time 11430 | PC=13 ADDR=0c DATA=8301 MEM=8301 WE=0 CPU_OUT=3 LED= 3 op1=3 op2=0 op3=1 ir_low=0008
# Time 11510 | PC=13 ADDR=03 DATA=8301 MEM=8301 WE=0 CPU_OUT=3 LED= 3 op1=3 op2=0 op3=1 ir_low=0008
# Time 11590 | PC=13 ADDR=03 DATA=8301 MEM=0006 WE=0 CPU_OUT=3 LED= 3 op1=3 op2=0 op3=1 ir_low=0008
# Time 11670 | PC=13 ADDR=03 DATA=0006 MEM=0006 WE=0 CPU_OUT=3 LED= 3 op1=3 op2=0 op3=1 ir_low=0008
# Time 11750 | PC=13 ADDR=03 DATA=0006 MEM=0006 WE=0 CPU_OUT=3 LED= 3 op1=3 op2=0 op3=1 ir_low=0008
# Time 11830 | PC=13 ADDR=03 DATA=0006 MEM=0006 WE=0 CPU_OUT=3 LED= 3 op1=3 op2=0 op3=1 ir_low=0008
# Time 11910 | PC=13 ADDR=03 DATA=0006 MEM=0006 WE=0 CPU_OUT=6 LED= 6 op1=3 op2=0 op3=1 ir_low=0008
# Time 11990 | PC=13 ADDR=03 DATA=0006 MEM=0006 WE=0 CPU_OUT=6 LED= 6 op1=3 op2=0 op3=1 ir_low=0008
# Time 12070 | PC=13 ADDR=0d DATA=0006 MEM=0006 WE=0 CPU_OUT=6 LED= 6 op1=3 op2=0 op3=1 ir_low=0008
# Time 12150 | PC=14 ADDR=0d DATA=0006 MEM=5218 WE=0 CPU_OUT=6 LED= 6 op1=3 op2=0 op3=1 ir_low=0008
# Time 12230 | PC=14 ADDR=0d DATA=5218 MEM=5218 WE=0 CPU_OUT=6 LED= 6 op1=3 op2=0 op3=1 ir_low=0008
# Time 12310 | PC=14 ADDR=0d DATA=5218 MEM=5218 WE=0 CPU_OUT=6 LED= 6 op1=2 op2=1 op3=8 ir_low=0008
# Time 12390 | PC=14 ADDR=0d DATA=5218 MEM=5218 WE=0 CPU_OUT=6 LED= 6 op1=2 op2=1 op3=8 ir_low=0008
# Time 12470 | PC=14 ADDR=0e DATA=5218 MEM=5218 WE=0 CPU_OUT=6 LED= 6 op1=2 op2=1 op3=8 ir_low=0008
# Time 12550 | PC=15 ADDR=0e DATA=5218 MEM=0008 WE=0 CPU_OUT=6 LED= 6 op1=2 op2=1 op3=8 ir_low=0008
# Time 12630 | PC=15 ADDR=0e DATA=0008 MEM=0008 WE=0 CPU_OUT=6 LED= 6 op1=2 op2=1 op3=8 ir_low=0008
# Time 12710 | PC=15 ADDR=0e DATA=0008 MEM=0008 WE=0 CPU_OUT=6 LED= 6 op1=2 op2=1 op3=8 ir_low=0008
# Time 12790 | PC=15 ADDR=0e DATA=0008 MEM=0008 WE=0 CPU_OUT=6 LED= 6 op1=2 op2=1 op3=8 ir_low=0008
# Time 12870 | PC=15 ADDR=02 DATA=0008 MEM=0008 WE=0 CPU_OUT=6 LED= 6 op1=2 op2=1 op3=8 ir_low=0008
# Time 12950 | PC=15 ADDR=02 DATA=0008 MEM=0003 WE=0 CPU_OUT=6 LED= 6 op1=2 op2=1 op3=8 ir_low=0008
# Time 13030 | PC=15 ADDR=02 DATA=0003 MEM=0003 WE=0 CPU_OUT=6 LED= 6 op1=2 op2=1 op3=8 ir_low=0008
# Time 13110 | PC=15 ADDR=02 DATA=0003 MEM=0003 WE=0 CPU_OUT=6 LED= 6 op1=2 op2=1 op3=8 ir_low=0008
# Time 13190 | PC=15 ADDR=01 DATA=0003 MEM=0003 WE=0 CPU_OUT=6 LED= 6 op1=2 op2=1 op3=8 ir_low=0008
# Time 13270 | PC=15 ADDR=01 DATA=0003 MEM=0003 WE=0 CPU_OUT=6 LED= 6 op1=2 op2=1 op3=8 ir_low=0008
# Time 13350 | PC=15 ADDR=01 DATA=0003 MEM=0003 WE=0 CPU_OUT=6 LED= 6 op1=2 op2=1 op3=8 ir_low=0008
# Time 13430 | PC=8 ADDR=01 DATA=0003 MEM=0003 WE=0 CPU_OUT=6 LED= 6 op1=2 op2=1 op3=8 ir_low=0008
# Time 13510 | PC=8 ADDR=01 DATA=0003 MEM=0003 WE=0 CPU_OUT=6 LED= 6 op1=2 op2=1 op3=8 ir_low=0008
# Time 13590 | PC=8 ADDR=08 DATA=0003 MEM=0003 WE=0 CPU_OUT=6 LED= 6 op1=2 op2=1 op3=8 ir_low=0008
# Time 13670 | PC=9 ADDR=08 DATA=0003 MEM=7101 WE=0 CPU_OUT=6 LED= 6 op1=2 op2=1 op3=8 ir_low=0008
# Time 13750 | PC=9 ADDR=08 DATA=7101 MEM=7101 WE=0 CPU_OUT=6 LED= 6 op1=2 op2=1 op3=8 ir_low=0008
# Time 13830 | PC=9 ADDR=08 DATA=7101 MEM=7101 WE=0 CPU_OUT=6 LED= 6 op1=1 op2=0 op3=1 ir_low=0008
# Time 13910 | PC=9 ADDR=08 DATA=7101 MEM=7101 WE=0 CPU_OUT=6 LED= 6 op1=1 op2=0 op3=1 ir_low=0008
# Time 13990 | PC=9 ADDR=08 DATA=7101 MEM=7101 WE=0 CPU_OUT=6 LED= 6 op1=1 op2=0 op3=1 ir_low=0008
# Time 14070 | PC=9 ADDR=08 DATA=7101 MEM=7101 WE=0 CPU_OUT=6 LED= 6 op1=1 op2=0 op3=1 ir_low=0008
# Time 14150 | PC=9 ADDR=01 DATA=7101 MEM=7101 WE=0 CPU_OUT=6 LED= 6 op1=1 op2=0 op3=1 ir_low=0008
# Time 14230 | PC=9 ADDR=01 DATA=0003 MEM=0003 WE=0 CPU_OUT=6 LED= 6 op1=1 op2=0 op3=1 ir_low=0008
# Time 14310 | PC=9 ADDR=01 DATA=0003 MEM=0003 WE=1 CPU_OUT=6 LED= 6 op1=1 op2=0 op3=1 ir_low=0008
# Time 14390 | PC=9 ADDR=01 DATA=0003 MEM=0003 WE=0 CPU_OUT=6 LED= 6 op1=1 op2=0 op3=1 ir_low=0008
# Time 14470 | PC=9 ADDR=09 DATA=0003 MEM=0003 WE=0 CPU_OUT=6 LED= 6 op1=1 op2=0 op3=1 ir_low=0008
# Time 14550 | PC=10 ADDR=09 DATA=0003 MEM=8101 WE=0 CPU_OUT=6 LED= 6 op1=1 op2=0 op3=1 ir_low=0008
# Time 14630 | PC=10 ADDR=09 DATA=8101 MEM=8101 WE=0 CPU_OUT=6 LED= 6 op1=1 op2=0 op3=1 ir_low=0008
# Time 14710 | PC=10 ADDR=09 DATA=8101 MEM=8101 WE=0 CPU_OUT=6 LED= 6 op1=1 op2=0 op3=1 ir_low=0008
# Time 14790 | PC=10 ADDR=09 DATA=8101 MEM=8101 WE=0 CPU_OUT=6 LED= 6 op1=1 op2=0 op3=1 ir_low=0008
# Time 14870 | PC=10 ADDR=01 DATA=8101 MEM=8101 WE=0 CPU_OUT=6 LED= 6 op1=1 op2=0 op3=1 ir_low=0008
# Time 14950 | PC=10 ADDR=01 DATA=8101 MEM=0003 WE=0 CPU_OUT=6 LED= 6 op1=1 op2=0 op3=1 ir_low=0008
# Time 15030 | PC=10 ADDR=01 DATA=0003 MEM=0003 WE=0 CPU_OUT=6 LED= 6 op1=1 op2=0 op3=1 ir_low=0008
# Time 15110 | PC=10 ADDR=01 DATA=0003 MEM=0003 WE=0 CPU_OUT=6 LED= 6 op1=1 op2=0 op3=1 ir_low=0008
# Time 15190 | PC=10 ADDR=01 DATA=0003 MEM=0003 WE=0 CPU_OUT=6 LED= 6 op1=1 op2=0 op3=1 ir_low=0008
# Time 15270 | PC=10 ADDR=01 DATA=0003 MEM=0003 WE=0 CPU_OUT=3 LED= 3 op1=1 op2=0 op3=1 ir_low=0008
# Time 15350 | PC=10 ADDR=01 DATA=0003 MEM=0003 WE=0 CPU_OUT=3 LED= 3 op1=1 op2=0 op3=1 ir_low=0008
